﻿page,assert_verify_action,device,element_name,selector,locator,data_file,data_field,locator_override,action_1,action_2,action_3,scroll_intentos,time_out,element_description
ar,0,mobile,importe,calabash,android.widget.TextView id:'activity_pedido_importe_valor_textview',,,,,,,,10,Valor del importe
ar,0,mobile,lbl_page_3501,calabash,android.widget.TextView {text CONTAINS '3501 Folio Recibo y Orden Compra'},,,,,,,,10,pantalla folio recibo
ar,0,mobile,txt_folio_recibo,calabash,android.widget.EditText id:'activity_folio_recibo_3520_edittext',,,,touch,enter_text,,,10,folio de recibo
ar,0,mobile,txt_orden_de_compra,calabash,android.widget.EditText id:'activity_orden_compra_3520_edittext',,,,touch,enter_text,,,10,orden de compra
ar,0,mobile,btn_next,calabash,android.widget.Button id:'act3501SiguienteButton',,,,touch,,,,5,boton siguiente pagina folio recibo
ar,0,mobile,btn_siguiente,calabash,android.widget.Button { text CONTAINS 'SIGUIENTE' },,,,,,,,1,
