﻿page,assert_verify_action,device,element_name,selector,locator,data_file,data_field,locator_override,action_1,action_2,action_3,scroll_intentos,time_out,element_description
credito_revolvente,0,mobile,view_page_pagos,calabash,android.widget.TextView  {text CONTAINS '3560 Pagos'},,,,,,,,1,titulo pantalla de pagos
credito_revolvente,0,mobile,btn_siguiente_pagos,calabash,android.widget.Button id:'actMovimientos3560SiguienteButton',,,,touch,,,,2,boton siguiente pagos
credito_revolvente,0,mobile,txt_importes_cr,calabash,android.widget.TextView id:'pago_creditos_importe_textview',,,,,,,,1,importes de pagos credito revolvente
credito_revolvente,0,mobile,txt_saldos_cr,calabash,android.widget.TextView id:'pago_creditos_saldo_textview',,,,,,,,1,saldos de pagos credito revolvente
credito_revolvente,0,mobile,txt_saldo_total_cr,calabash,android.widget.TextView id:'pago_creditos_total_saldo_textview',,,,,,,,1,saldo total credito _revolvente
credito_revolvente,0,mobile,txt_total_a_pagar_cr,calabash,android.widget.TextView id:'pago_creditos_total_textview',,,,,,,,1,total a pagar cr
credito_revolvente,0,mobile,txt_nuevo_saldo_cr,calabash,android.widget.TextView id:'pago_creditos_nuevo_saldo_textview',,,,,,,,1,nuevo saldo cr
credito_revolvente,0,mobile,ck_cantidad_a_pagar_cr,calabash,android.widget.EditText id:'pago_creditos_pago_saldo_edittext',,,,touch,enter_text,touch,,5,cantidad a pagar cr
credito_revolvente,0,mobile,view_cr_pagos,calabash,android.widget.TextView  {text CONTAINS '3525 ' },,,,,,,,5,pantalla cr
credito revolvente,0,mobile,txt_monto_credito,calabash,android.widget.EditText id:'credito_revolvente_venta_valor_edittext',,,,enter_text,,,,10,monto credito revolvente
credito revolvente,0,mobile,sl_motivo_credito_revolvente,calabash,android.widget.Spinner id:'credito_revolvente_motivos_spinner',,,,touch,,,,1,motivo cr
credito revolvente,0,mobile,sl_option_motivo_credito_revolvente,calabash,android.widget.CheckedTextView text:'${DT_VALUE}',,,1,touch,,,,5,opcion morivo cr
credito revolvente,0,mobile,txt_g_total,calabash,android.widget.TextView id:'credito_revolvente_gran_total_header_textview',,,,,,,,5,gran total
credito revolvente,0,mobile,btn_siguiente_cr,calabash,android.widget.Button id:'actCredito3525SiguienteButton',,,,touch,,,,,
credito revolvente,0,mobile,importe,calabash,android.widget.TextView id:'activity_pedido_importe_valor_textview',,,,,,,,10,Valor del importe
