﻿page,assert_verify_action,device,element_name,selector,locator,data_file,data_field,locator_override,action_1,action_2,action_3,scroll_intentos,time_out,element_description
cheques,0,mobile,txt_cheques,calabash,android.widget.TextView {text CONTAINS '3045 Cantidad Cheques'},,,,,,,,5,titulo pantalla cheques
cheques,0,mobile,importe,calabash,android.widget.TextView id:'activity_pedido_importe_valor_textview',,,,,,,,10,Valor del importe
cheques,0,mobile,txt_importe_cuenta,calabash,android.widget.EditText id:'cheque_captura_row_3045_cuenta_edittext'  index:#{i},,,,touch,enter_text,,,5,cuenta de banco
cheques,0,mobile,txt_numero_de_cheque,calabash,android.widget.EditText id:'cheque_captura_row_3045_cheque_edittext' index:#{i},,,,touch,enter_text,,,5,numero de cheque
cheques,0,mobile,txt_monto,calabash,android.widget.EditText id:'cheque_captura_row_3045_monto_edittext'  index:#{i},,,,touch,enter_text,,,5,monto
cheques,0,mobile,btn_siguiente_cheque,calabash,android.widget.Button id:'actCheques3525SiguienteButton',,,,touch,,,,5,boton siguiente cheque
cheques,0,mobile,monto_cheque,calabash,android.widget.TextView id:'cheque_captura_row_3045_cuenta_textview',,,,,,,,,
cheques,0,mobile,descripcionEnvase,calabash,android.widget.TextView  {id CONTAINS 'retornable_row'},,,,,,,,10,Nombre del envase
cheques,0,mobile,ent,calabash,android.widget.TextView id:'retornable_row_edit_0000_del_textview',,,,,,,,10,Cantidad entregada de envase
cheques,0,mobile,dev,calabash,android.widget.EditText  {id CONTAINS 'retornable_row'},,,,enter_text,,,,10,Input de envase devuelto
cheques,0,mobile,sdo,calabash,android.widget.TextView id:'retornable_row_edit_0000_inv_textview',,,,,,,,10,Saldo
cheques,0,mobile,rec,calabash,android.widget.TextView id:'recolectar_row_0000_del_textview',,,,,,,,10,Recuperado
cheques,0,mobile,elementoCajilla,calabash,android.widget.EditText id:'retornable_row_edit_0000_qty_edittext',,,,touch,enter_text,,,10,Elemento de cajilla
cheques,1,mobile,lbl_envase_a_buscar,calabash,android.widget.TextView {text CONTAINS '${DT_VALUE}'},,,1,,,,,3,validar producto
cheques,1,mobile,txt_data_envase,calabash,android.widget.EditText  {id CONTAINS 'retornable_row'},,,,,,,,,
cheques,0,mobile,nombre_empresa,calabash,android.widget.TextView id:'cheque_captura_row_3045_cuenta_textview',,,,,,,,,
cheques,0,mobile,descripcionCajilla,calabash,android.widget.TextView id:'retornable_row_edit_0000_nombre_textview',,,,touch,,,,10,nombre cajilla
