﻿page,assert_verify_action,device,element_name,selector,locator,data_file,data_field,locator_override,action_1,action_2,action_3,scroll_intentos,time_out,element_description
generic,0,mobile,btn_siguiente,calabash,android.widget.Button { text CONTAINS 'Siguiente' },,,,touch,,,,1,
generic,0,mobile,btn_popup_confirmacion_si,calabash,android.widget.Button text:'Si',,,,touch,,,,1,
generic,0,mobile,btn_sig,calabash,android.widget.Button   { text CONTAINS '>>S' },,,,,,,,1,
generic,0,mobile,btn_combo_escalera,calabash,android.widget.Spinner id:'mas_combos_dinamicos_9997_spinner',,,,touch,,,,1,Combo escalera
generic,0,mobile,mensaje_cobro_embase,calabash,android.widget.TextView id:'message',,,,,,,,10,Mensaje cobro de GRB
generic,0,mobile,btn_cobro_envase,calabash,android.widget.Button id:'button1',,,,touch,,,,10,Confirmacion de cobro de envase GRB
generic,0,mobile,btn_cobro_cajilla,calabash,android.widget.Button id:'button1',,,,touch,,,,10,Comfirmacion cobro cajilla
generic,0,mobile,mensaje_cobro_cajilla,calabash,android.widget.TextView id:'message',,,,touch,,,,10,Mensaje cobro de Cajilla
generic,0,mobile,btn_cobro_envase_garrafon,calabash,android.widget.Button id:'button1',,,,touch,,,,10,Comfirmacion cobro de envase garrafon
generic,0,mobile,txt_sdo,calabash,android.widget.TextView id:'retornable_row_edit_0000_inv_textview',,,,,,,,10,Saldo
generic,0,mobile,txt_descripcionEnvase,calabash,android.widget.TextView id:'retornable_row_edit_0000_nombre_textview',,,,,,,,10,Nombre del envase
login,0,mobile,btn_popup,calabash,android.widget.Button id:'button1',,,,touch,,,,1,Boton popup
generic,0,mobile,txt_ticket,calabash,android.widget.EditText id:'editor',,,,,,,,1,Texto del ticket
