﻿page,assert_verify_action,device,element_name,selector,locator,data_file,data_field,locator_override,action_1,action_2,action_3,scroll_intentos,time_out,element_description
movimiento_dia,0,mobile,txt_pago_efectivo,calabash,android.widget.TextView id:'movimientos_dia3520_pago_efectivo_textview',,,,,,,,1,txt
movimiento_dia,0,mobile,txt_importe_en_cheques,calabash,android.widget.TextView id:'movimientos_dia3520_importe_cheques_textview',,,,,,,,1,txt
movimiento_dia,0,mobile,txt_importe_en_cupones,calabash,android.widget.TextView id:'movimientos_dia3520_importe_cupones_textview',,,,,,,,1,txt
movimiento_dia,0,mobile,txt_total_pagado,calabash,android.widget.TextView id:'movimientos_dia3520_importe_pagado_textview',,,,,,,,1,txt
movimiento_dia,0,mobile,txt_ticket,calabash,android.widget.EditText id:'editor',,,,,,,,1,Texto del ticket
