page,assert_verify_action,device,element_name,selector,locator,data_file,data_field,locator_override,action_1,action_2,action_3,scroll_intentos,time_out,element_description
menus,0,mobile,btn_menu_principal,calabash,android.widget.Button text:'${DT_VALUE}',,,1,touch,,,,10,
programados,0,mobile,btn_buscar,calabash,android.widget.ImageView id:'search_button',,,,touch,,,,1,
programados,0,mobile,btn_submenu_programados,calabash,android.widget.TextView {text CONTAINS '${DT_VALUE}'},,,1,touch,,,,1,
programados,0,mobile,txt_buscar,calabash,android.widget.EditText id:'search_src_text',,,,touch,enter_text,,,1,
programados,0,mobile,btn_opcion_venta,calabash,android.widget.ImageButton id:'actClientes1100VentaImageButton',,,,touch,,,,1,
pedido_del_dia,0,mobile,btn_opcion_pedido_dia,calabash,android.widget.Button text:'${DT_VALUE}',,,1,touch,,,,10,
pedido_del_dia,0,mobile,lbl_titulo_pantalla_pedido_dia,calabash,android.widget.TextView { text CONTAINS 'Pedido del d' },,,,touch,,,,1,
pedido_del_dia,0,mobile,txt_cantidad_1,calabash,android.widget.EditText { id CONTAINS 'RowCantidadLabel' } index:0,,,,touch,enter_text,,,1,
pedido_del_dia,0,mobile,txt_cantidad_2,calabash,android.widget.EditText { id CONTAINS 'RowCantidadLabel' } index:1,,,,touch,enter_text,,,1,
pedido_del_dia,0,mobile,txt_cantidad_3,calabash,android.widget.EditText { id CONTAINS 'RowCantidadLabel' } index:2,,,,touch,enter_text,,,1,
pedido_del_dia,0,mobile,btn_agregar_productos_confirmar,calabash,android.widget.ImageButton id:'actInventarioVentasAceptarImageButtonNuevo',,,,touch,,,,1,
devolucion_retornables,0,mobile,btn_pretamo_caja,calabash,android.widget.Button id:'actRetornables0000SiguienteButton',,,,touch,,,,1,
pretamos_retornables,0,mobile,txt_cantidad_retornables,calabash,android.widget.EditText { id CONTAINS 'retornable_row_edit_'},,,,touch,enter_text,,,1,
credito revolvente,0,mobile,txt_cantidad_cupones,calabash, android.widget.EditText id:'cupon__captura_row_3046_cantidad_edittext' index:2,,,,touch,enter_text,,,10,
credito revolvente,0,mobile,txt_cantidad_cupones_2_i,calabash,android.widget.EditText id:'cupon__captura_row_3046_cantidad_edittext' index:11,,,,touch,,,,10,
credito revolvente,0,mobile,txt_cantidad_cupones_2_f,calabash,android.widget.EditText id:'cupon__captura_row_3046_cantidad_edittext' index:6,,,,touch,enter_text,,,10,
pagos,0,mobile,txt_pago_cantidad,calabash,android.widget.EditText id:'pago_creditos_pago_saldo_edittext',,,,touch,enter_text,,,10,
devolucion_retornables,0,mobile,txt_cantidad_devolucion_1,calabash,android.widget.EditText { id CONTAINS 'retornable_row_edit' } index:3,,,,touch,enter_text,,,1,
peido_del_dia,0,mobile,txt_pedido_del_dia,calabash,android.widget.TextView id:'pedido_dia_nombre_textview',,,,,,,,1,titulo pedido del dia
indicadores_de_cliente,0,mobile,txt_indicadores_de_cliente,calabash,android.widget.TextView {text CONTAINS '4610 Indicadores Cliente'},,,,,,,,1,pagina indicadores de cliente
movimiento_del_dia,0,mobile,txt_movimiento_del_dia,calabash,android.widget.TextView {text CONTAINS '3520 Movimientos del'},,,,,,,,1,pagina_movimientos_del_dia
pedido_del_dia,0,mobile,btn_sig_pedido_del_dia,calabash,android.widget.Button id:'actCupones3020SiguienteButton',,,,touch,,,,5,
devolucion_retornables,0,mobile,btn_sig_devolucion_de_retornables,calabash,android.widget.Button id:'actRetornables0000SiguienteButton',,,,touch,,,,5,
cupones,0,mobile,btn_sig_cupones,calabash,android.widget.Button id:'actCupones3046SiguienteButton',,,,touch,,,,5,
movimiento_del_dia,0,mobile,btn_sig_movimiento_del_dia,calabash,android.widget.Button id:'actMovimientos3520SiguienteButton',,,,touch,,,,5,
indicadores_de_cliente,0,mobile,btn_sig_indicadores_del_clientess,calabash,android.widget.Button id:'actMainSiguienteButton',,,,touch,,,,5,
auditoria_enfriadores,0,mobile,txt_auditoria_enfriadores,calabash,android.widget.TextView {text CONTAINS 'Enfriadores'},,,,,,,,5,pagina audiotoria de enfriadores
descuentos,0,mobile,txt_descuentos,calabash,android.widget.TextView {text CONTAINS '8400 Descuentos'},,,,,,,,5,titulo pagina descuentos
descuentos,0,mobile,btn_siguiente_descuentos,calabash,android.widget.Button id:'btnSiguiente',,,,touch,,,,5,boton siguiente de pagina descuentos
paginas_page,0,mobile,btn_paquetes,calabash,android.widget.Button id:'activity_pedido_dia3020_agregar_combo_button' text:'${DT_VALUE}',,,,touch,,,,5,boton paquetes
paginas_page,0,mobile,btn_x,calabash,android.widget.ImageView id:'search_close_btn',,,,touch,,,,5,btn cerrar 
paginas_page,0,mobile,lbl_control_de_km,calabash,android.widget.TextView  {text CONTAINS '6051 CONTROL DE KILOMETRAJE'},,,,,,,,5,pagina control de km
