id,hhc_descuento,nombre_descuento_condicion_comercial,descuento_condicion_comercial,tipo_descuento_condicion_comercial,nombre_descuento_eventual,descuento_eventual,tipo_descuento_eventual,tipo_combo,nombre_combo,cantidad_combo,nivel_1,sku_1_nivel_1,cantidad_sku_1_nivel_1,precio_sku_1_nivel_1,sku_2_nivel_1,cantidad_sku_2_nivel_1,precio_sku_2_nivel_1,sku_3_nivel_1,cantidad_sku_3_nivel_1,precio_sku_3_nivel_1,descuento_dinamico_porcentaje_nivel_1,descuento_dinamico_monto_nivel_1,nivel_escalera,nivel_2,sku_1_nivel_2,cantidad_sku_1_nivel_2,precio_sku_1_nivel_2,sku_2_nivel_2,cantidad_sku_2_nivel_2,precio_sku_2_nivel_2,sku_3_nivel_2,cantidad_sku_3_nivel_2,precio_sku_3_nivel_2,descuento_dinamico_porcentaje_nivel_2,descuento_dinamico_monto_nivel_2,nivel_3,sku_1_nivel_3,cantidad_sku_1_nivel_3,precio_sku_1_nivel_3,sku_2_nivel_3,cantidad_sku_2_nivel_3,precio_sku_2_nivel_3,sku_3_nivel_3,cantidad_sku_3_nivel_3,precio_sku_3_nivel_3,descuento_dinamico_porcentaje_nivel_3,descuento_dinamico_monto_nivel_3
82,,,,,,,,estatico,EST600ML,1,Nivel 1,Pepsi 600 Ml Pet 12,,125,,,,,,,0,,Nivel 2,Nivel 2,  ePURA 0.6 12 PET,,71.5,,,,,,,50,,,,,,,,,,,,,
86,eventual,,,,EVE600ML,50,%,dinamico,DIN600ML,1,Nivel 1,Mirinda 600 Ml Pet 1,2,115,,,,,,,0,,Nivel 2,Nivel 2,  ePURA 0.6 12 PET,2,71.5,,,,,,,0,,Nivel 3,  BeLight 1.5 Jam 06P,1,75,,,,,,,50,
83,eventual,,,,EVE600ML,50,%,estatico,EST600ML,1,Nivel 1,Pepsi 600 Ml Pet 12,2,107,,,,,,,,,Nivel 2,Nivel 2,Epura 600ml 12Pet,,39,,,,,,,50,,,,,,,,,,,,,
117,,,,,,,,dinamico,DIN600ML,1,Nivel 1,Mirinda 600 Ml Pet 1,2,100,,,,,,,,,Nivel 2,Nivel 2,ePura 0.6 12 PET,2,39,,,,,,,,,Nivel 3,BeLight 1.5 Jam 06P,1,65,,,,,,,50,
117-1,,,,,,,,estatico,EST600ML,1,Nivel 1,Pepsi 600 Ml Pet 12,,107,,,,,,,,,Nivel 2,Nivel 2,ePura 0.6 12 PET,,39,,,,,,,50,,,,,,,,,,,,,
116,eventual,,,,EVE600ML,50,%,,,,,,,,,,,,,,,,,,,,,,,,,,,,,,,,,,,,,,,,
122,condicion comercial,TR-5-2-20 Ref. 20 Agua,20,%,,,,escalera,ESC600ML,,,Pepsi 600 Ml Pet 12,10,125,,,,,,,4,,Nivel 2,Nivel 2,,,,,,,,,,,,,,,,,,,,,,,
108,eventual,,,,EVE600ML,50,%,dinamico,DIN600ML,1,Nivel 1,Mirinda 600 Ml Pet 12,2,115,,,,,,,,,Nivel 2,Nivel 2,Epura 600ml 12Pet,2,71.5,,,,,,,,,Nivel 3,BeLight 1.5 Jam 06Pet,1,75,,,,,,,50,
102,eventual,,,,EVE600ML,50,%,dinamico,DIN600ML,1,Nivel 1,Mirinda 600 Ml Pet 12,2,107,,,,,,,,,Nivel 2,Nivel 2,Epura 600ml 12Pet,2,39,,,,,,,,,Nivel 3,BeLight 1.5 Jam 06Pet,1,65,,,,,,,50,
106,combinado,TR-5-2-20 Ref. 20 Agua,20,%,EVE600ML,50,%,,,,,,,,,,,,,,,,,,,,,,,,,,,,,,,,,,,,,,,,
126,,,,,,,,estatico,EST600ML,1,Nivel 1,Pepsi 600 Ml Pet 12,,125,,,,,,,0,,Nivel 2,Nivel 2,ePURA 0.6 12 PET,,71.5,,,,,,,50,,,,,,,,,,,,,
