﻿id,usuario_verificador,password_verificador,usuario,password,economico,kilometraje,motivo_de_cuenta_no_atendida
1,627133,627133,50220701,50220701,12345,88888,Cerrado Temporalmente
2,627133,627133,787614,787614,12345,88888,Cerrado Temporalmente
10,627133,627133,50220701,50220701,12345,88888,Cerrado Temporalmente
12,627133,627133,787614,787614,,,Cerrado Temporalmente
13,627133,627133,787614,787614,,,Cerrado Temporalmente
17,627133,627133,50220701,50220701,12345,88888,Cerrado Temporalmente
