﻿id,servidor,tipo_usuario,usuario,password,bodega,ruta,economico,kilometraje
1,tlane,vendedor,50011025,1234,184,7023,123,123
2,tlane,vendedor,787614,787614,184,7023,123,123
3,tlane,supervisor,50181005,282329,184,7023,123,123
4,mixcoac,vendedor,50224248,50224248,123,3140,123,123
5,mixcoac,verificador,50192511,8092016,123,3140,123,123
6,mixcoac,supervisor,50000458,50000458,123,3140,123,123
