﻿id,usuario,password,nud,carpeta,ticket,visita,bandera_grb,refresco_pet_1,precio_1,refresco_pet_2,precio_2,refresco_grb_1,precio_3,caja_refresco_grb_1,refresco_grb_2,precio_4,caja_refresco_grb_2,garrafon_1,precio_5,caja_garrafon_1,garrafon_2,precio_6,caja_garrafon_2,no_carbonatado_1,precio_7,no_carbonatado_2,precio_8,agua_embotellada_1,precio_9,agua_embotellada_2,precio_10,cantidad_cajas_1,sku_no_vendible,nombre_empresa_1_m,nombre_moneda_1,cantidad_moneda_1,valor_moneda_1,nombre_empresa_2_m,nombre_moneda_2,cantidad_moneda_2,valor_moneda_2,nombre_empresa_3_m,nombre_moneda_3,cantidad_moneda_3,valor_moneda_3,nombre_envase_grb_1,devolucion_grb_1,nombre_envase_grb_2,devolucion_grb_2,disponible_envase_grb_1,nombre_envase_garrafon_1,devolucion_garrafon_1,nombre_envase_garrafon_2,devolucion_garrafon_2,disponible_envase_garrafon,nombre_cajilla,devolucion_cajilla,disponible_cajilla,nombre_prestamo_cajilla,cantidad_prestamo_cajilla_1,numero_cuenta,numero_cheque,motivo_credito_revolvente,saldo_pago_cr,sku_nueva_venta_revisita,cajas_revisita,precio_sku_nueva_venta,sku_rechazo_parcial,cajas_rechazo_parcial,precio_sku_rechazo_parcial,departamento_rt,motivo_rechazo
5,50224248,50224248,8318,MGOutputWorking,Ticket,0,0,1871,40,1542,63,1104,160,10,1846,40,5,7452,403,5,5314,38,5,4909,26,1855,26,1020,346,1433,100,10,,,,,,,,,,,,,,,,,,,,,,,,,,,9006 - Plastico 24 Cavidades,0,54,123,,no,4913,11,,,,,,
5_1,50224248,50224248,8318,MGOutputWorking,Ticket,1,,,,,,,,,,,,,,,,,,,,,,,,,,,,,,,,,,,,,,,,,,,,,,,,,,,,,,,,,,,4913,20,,,,,,
5_2,50224248,50224248,8318,MGOutputWorking,Ticket,2,,,,,,,,,,,,,,,,,,,,,,,,,,,,IRSA,CUPON,2,50,IRSA,RECUP ENVASE 2,5,9.5,IRSA,Liquido 4x1,10,0.01,,,,,,,,,,,,,,,,,,,,,8,,7452,1,,,
5_3,50224248,50224248,8318,MGOutputWorking,Ticket,3,,,,,,,,,,,,,,,,,,,,,,,,,,,,EDIGEPP,Tapa Goleadora,4,2,EDIGEPP,Tapa$2,10,2,EDIGEPP,Cupon MK $1.00,15,1,,,,,,,,,,,,,,,,,,,,4913,19,,,,,,
5_4,50224248,50224248,8318,MGOutputWorking,Ticket,4,,,,,,,,,,,,,,,,,,,,,,,,,,,,,,,,,,,,,,,,,,,,,,,,,,,,,,,,,,,,,,,,,SAC APT,Faltante en Bodega
20,50224248,50224248,4137,MGOutputWorking,Ticket,1,2,120,92,420,92,1846,34.25,5,1857,34.25,5,5314,35,5,1514,28,5,5405,49,5406,49,1534,32,1544,64,5,,,,,,,,,,,,,,,,,,3,,,,,,,,,,,,,,,,,,,,,,
20_2,50224248,50224248,4137,MGOutputWorking,Ticket,2,2,,,,,,,,,,,,,,,,,,,,,,,,,,,,,,,,,,,,,,,,,,,,,,,,,,,,,,,,,,4313,4,,,,,,
20_3,50224248,50224248,4137,MGOutputWorking,Ticket,3,2,,,,,,,,,,,,,,,,,,,,,,,,,,,,,,,,,,,,,,,,,,,,,,,,,,,,,,,,,,4313,4,,,,,,
20_4,50224248,50224248,4137,MGOutputWorking,Ticket,4,2,,,,,,,,,,,,,,,,,,,,,,,,,,,,,,,,,,,,,,,,,,,,,,,,,,,,,,,,,,,,,,,,,
20_5,50224248,50224248,4137,MGOutputWorking,Ticket,5,2,,,,,,,,,,,,,,,,,,,,,,,,,,,,,,,,,,,,,,,,,,,,,,,,,,,,,,,,,,4313,4,,,,,,
12,50224248,50224248,4137,MGOutputWorking,Ticket,1,2,120,92,420,92,1846,34.25,5,1857,34.25,5,5314,35,5,1514,28,5,5405,49,5406,49,1534,32,1544,64,5,123,IRSA,CUPON,2,50,IRSA,RECUP ENVASE 2,5,9.5,IRSA,Liquido 4x1,10,0.01,,,,,5,,,,,,,,3,9006 - Plastico 24 Cavidades,5,,,,,,,,,,,,
12_2,50224248,50224248,4137,MGOutputWorking,Ticket,1,2,,,,,,,,,,,,,,,,,,,,,,,,,,,,,,,,,,,,,,,,,,,5,,,,,,,,3,9006 - Plastico 24 Cavidades,5,,,,,,,1867,2,,,,
12_3,50224248,50224248,4137,MGOutputWorking,Ticket,1,2,,,,,,,,,,,,,,,,,,,,,,,,,,,IRSA,CUPON,2,50,IRSA,RECUP ENVASE 2,5,9.5,IRSA,Liquido 4x1,10,0.01,,,,,5,,,,,,,,3,9006 - Plastico 24 Cavidades,5,,,,,4313,4,,,,,,
12_4,50224248,50224248,4137,MGOutputWorking,Ticket,1,2,,,,,,,,,,,,,,,,,,,,,,,,,,,,,,,,,,,,,,,,,,,5,,,,,,,,3,9006 - Plastico 24 Cavidades,5,,,,,,,1867,2,,,,
12_5,50224248,50224248,4137,MGOutputWorking,Ticket,1,2,,,,,,,,,,,,,,,,,,,,,,,,,,,,,,,,,,,,,,,,,,,5,,,,,,,,3,9006 - Plastico 24 Cavidades,5,,,,,4313,4,,,,,,
18,50224248,50224248,4137,MGOutputWorking,Ticket,1,2,120,92,420,92,1846,34.25,5,1857,34.25,5,5314,35,5,1514,28,5,5405,49,5406,49,1534,32,1544,64,5,,,,,,,,,,,,,,,,,,5,,,,,,,,3,9006 - Plastico 24 Cavidades,5,,,,,,,,,,,,
18_2,50224248,50224248,4137,MGOutputWorking,Ticket,1,2,,,,,,,,,,,,,,,,,,,,,,,,,,,,,,,,,,,,,,,,,,,,,,,,,,,,,,,,,,,,,,,,,
18_3,50224248,50224248,4137,MGOutputWorking,Ticket,1,2,,,,,,,,,,,,,,,,,,,,,,,,,,,,,,,,,,,,,,,,,,,5,,,,,,,,3,9006 - Plastico 24 Cavidades,5,,,,,4313,4,,,,,,
18_4,50224248,50224248,4137,MGOutputWorking,Ticket,1,2,,,,,,,,,,,,,,,,,,,,,,,,,,,IRSA,CUPON,2,50,IRSA,RECUP ENVASE 2,5,9.5,IRSA,Liquido 4x1,10,0.01,,,,,5,,,,,,,,3,9006 - Plastico 24 Cavidades,5,,,,,,,1867,2,,,,
18_5,50224248,50224248,4137,MGOutputWorking,Ticket,1,2,,,,,,,,,,,,,,,,,,,,,,,,,,,,,,,,,,,,,,,,,,,,,,,,,,,,,,,,,,,,,,,,,
10,50224248,50224248,4137,MGOutputWorking,Ticket,1,2,120,92,420,92,1846,34.25,5,1857,34.25,5,5314,35,5,1514,28,5,5405,49,5406,49,1534,32,1544,64,5,,,,,,,,,,,,,,,,,,5,,,,,,,,3,9006 - Plastico 24 Cavidades,5,,,,,,,,,,,,
10_2,50224248,50224248,4137,MGOutputWorking,Ticket,1,2,,,,,,,,,,,,,,,,,,,,,,,,,,,,,,,,,,,,,,,,,,,,,,,,,,,3,9006 - Plastico 24 Cavidades,5,,,,,,,1867,2,,,,
10_3,50224248,50224248,4137,MGOutputWorking,Ticket,1,2,,,,,,,,,,,,,,,,,,,,,,,,,,,,,,,,,,,,,,,,,,,,,,,,,,,3,9006 - Plastico 24 Cavidades,5,,,,,4313,4,,,,,,
10_4,50224248,50224248,4137,MGOutputWorking,Ticket,1,2,,,,,,,,,,,,,,,,,,,,,,,,,,,,,,,,,,,,,,,,,,,,,,,,,,,3,9006 - Plastico 24 Cavidades,5,,,,,,,1867,2,,,,
10_5,50224248,50224248,4137,MGOutputWorking,Ticket,1,2,,,,,,,,,,,,,,,,,,,,,,,,,,,,,,,,,,,,,,,,,,,,,,,,,,,3,9006 - Plastico 24 Cavidades,5,,,,,,,1867,2,,,,
11,50224248,50224248,4137,MGOutputWorking,Ticket,1,2,120,92,420,92,1846,34.25,5,1857,34.25,5,5314,35,5,1514,28,5,5405,49,5406,49,1534,32,1544,64,5,,IRSA,CUPON,2,50,IRSA,RECUP ENVASE 2,5,9.5,IRSA,Liquido 4x1,10,0.01,,,,,5,,,,,,,,3,9006 - Plastico 24 Cavidades,5,,,,,,,,,,,,
11_2,50224248,50224248,4137,MGOutputWorking,Ticket,1,2,,,,,,,,,,,,,,,,,,,,,,,,,,,,,,,,,,,,,,,,,,,,,,,,,,,3,9006 - Plastico 24 Cavidades,5,,,,,,,1867,2,,,,
11_3,50224248,50224248,4137,MGOutputWorking,Ticket,1,2,,,,,,,,,,,,,,,,,,,,,,,,,,,IRSA,CUPON,2,50,IRSA,RECUP ENVASE 2,5,9.5,IRSA,Liquido 4x1,10,0.01,,,,,,,,,,,,,3,9006 - Plastico 24 Cavidades,5,,,,,4313,4,,,,,,
11_4,50224248,50224248,4137,MGOutputWorking,Ticket,1,2,,,,,,,,,,,,,,,,,,,,,,,,,,,,,,,,,,,,,,,,,,,,,,,,,,,,,,,,,,,,,,,,,
11_5,50224248,50224248,4137,MGOutputWorking,Ticket,1,2,,,,,,,,,,,,,,,,,,,,,,,,,,,,,,,,,,,,,,,,,,,,,,,,,,,3,9006 - Plastico 24 Cavidades,5,,,,,4313,4,,,,,,
7,50224248,50224248,4137,MGOutputWorking,Ticket,1,2,120,92,420,92,1846,34.25,5,1857,34.25,5,5314,35,5,1514,28,5,5405,49,5406,49,1534,32,1544,64,5,,,,,,,,,,,,,,,,,,5,,,,,2,,,3,9006 - Plastico 24 Cavidades,5,,,,,,,,,,,,
7_2,50224248,50224248,4137,MGOutputWorking,Ticket,1,2,,,,,,,,,,,,,,,,,,,,,,,,,,,,,,,,,,,,,,,,,,,,,,,,,,,3,9006 - Plastico 24 Cavidades,5,,,,,4313,4,,,,,,
7_3,50224248,50224248,4137,MGOutputWorking,Ticket,1,2,,,,,,,,,,,,,,,,,,,,,,,,,,,,,,,,,,,,,,,,,,,,,,,,,,,,,,,,,,,,,,,,,
7_4,50224248,50224248,4137,MGOutputWorking,Ticket,1,2,,,,,,,,,,,,,,,,,,,,,,,,,,,IRSA,CUPON,2,50,IRSA,RECUP ENVASE 2,5,9.5,IRSA,Liquido 4x1,10,0.01,,,,,,,,,,,,,,,,,,,,,,1867,2,,,,
7_5,50224248,50224248,4137,MGOutputWorking,Ticket,1,2,,,,,,,,,,,,,,,,,,,,,,,,,,,,,,,,,,,,,,,,,,,,,,,,,,,,,,,,,,,,,,,,,
14,50224248,50224248,4137,MGOutputWorking,Ticket,1,2,120,92,420,92,1846,34.25,5,1857,34.25,5,5314,35,5,1514,28,5,5405,49,5406,49,1534,32,1544,64,5,,IRSA,CUPON,2,50,IRSA,RECUP ENVASE 2,5,9.5,IRSA,Liquido 4x1,10,0.01,,,,,5,,,,,2,,,3,9006 - Plastico 24 Cavidades,5,,,,,,,,,,,,
14_2,50224248,50224248,4137,MGOutputWorking,Ticket,1,2,,,,,,,,,,,,,,,,,,,,,,,,,,,,,,,,,,,,,,,,,,,,,,,,,,,,,,,,,,,,,,,,,
14_3,50224248,50224248,4137,MGOutputWorking,Ticket,1,2,,,,,,,,,,,,,,,,,,,,,,,,,,,IRSA,CUPON,2,50,IRSA,RECUP ENVASE 2,5,9.5,IRSA,Liquido 4x1,10,0.01,,,,,,,,,,,,,,,,,,,,4313,4,,,,,,
14_4,50224248,50224248,4137,MGOutputWorking,Ticket,1,2,,,,,,,,,,,,,,,,,,,,,,,,,,,IRSA,CUPON,2,50,IRSA,RECUP ENVASE 2,5,9.5,IRSA,Liquido 4x1,10,0.01,,,,,,,,,,,,,,,,,,,,,,1867,2,,,,
14_5,50224248,50224248,4137,MGOutputWorking,Ticket,1,2,,,,,,,,,,,,,,,,,,,,,,,,,,,,,,,,,,,,,,,,,,,,,,,,,,,,,,,,,,,,,,,,,
19,50224248,50224248,4137,MGOutputWorking,Ticket,1,2,120,92,420,92,1846,34.25,5,1857,34.25,5,5314,35,5,1514,28,5,5405,49,5406,49,1534,32,1544,64,5,,,,,,,,,,,,,,,,,,5,,,,,2,,,3,9006 - Plastico 24 Cavidades,5,,,,,,,,,,,,
19_2,50224248,50224248,4137,MGOutputWorking,Ticket,1,2,,,,,,,,,,,,,,,,,,,,,,,,,,,,,,,,,,,,,,,,,,,,,,,,,,,3,9006 - Plastico 24 Cavidades,5,,,,,4313,4,,,,,,
19_3,50224248,50224248,4137,MGOutputWorking,Ticket,1,2,,,,,,,,,,,,,,,,,,,,,,,,,,,IRSA,CUPON,2,50,IRSA,RECUP ENVASE 2,5,9.5,IRSA,Liquido 4x1,10,0.01,,,,,,,,,,,,,,,,,,,,,,1867,2,,,,
19_4,50224248,50224248,4137,MGOutputWorking,Ticket,1,2,,,,,,,,,,,,,,,,,,,,,,,,,,,,,,,,,,,,,,,,,,,,,,,,,,,,,,,,,,,,,,,,,
19_5,50224248,50224248,4137,MGOutputWorking,Ticket,1,2,,,,,,,,,,,,,,,,,,,,,,,,,,,,,,,,,,,,,,,,,,,,,,,,,,,3,9006 - Plastico 24 Cavidades,5,,,,,4313,4,,,,,,
17,50224248,50224248,4137,MGOutputWorking,Ticket,1,2,120,92,420,92,1846,34.25,5,1857,34.25,5,5314,35,5,1514,28,5,5405,49,5406,49,1534,32,1544,64,5,,IRSA,CUPON,2,50,IRSA,RECUP ENVASE 2,5,9.5,IRSA,Liquido 4x1,10,0.01,,,,,5,,,,,2,,,3,9006 - Plastico 24 Cavidades,5,,,,,,,,,,,,
17_2,50224248,50224248,4137,MGOutputWorking,Ticket,1,2,,,,,,,,,,,,,,,,,,,,,,,,,,,IRSA,CUPON,2,50,IRSA,RECUP ENVASE 2,5,9.5,IRSA,Liquido 4x1,10,0.01,,,,,,,,,,,,,,,,,,,,,,1867,2,,,,
17_3,50224248,50224248,4137,MGOutputWorking,Ticket,1,2,,,,,,,,,,,,,,,,,,,,,,,,,,,IRSA,CUPON,2,50,IRSA,RECUP ENVASE 2,5,9.5,IRSA,Liquido 4x1,10,0.01,,,,,,,,,,,,,,,,,,,,4313,4,,,,,,
17_4,50224248,50224248,4137,MGOutputWorking,Ticket,1,2,,,,,,,,,,,,,,,,,,,,,,,,,,,,,,,,,,,,,,,,,,,,,,,,,,,,,,,,,,,,,,,,,
17_5,50224248,50224248,4137,MGOutputWorking,Ticket,1,2,,,,,,,,,,,,,,,,,,,,,,,,,,,IRSA,CUPON,2,50,IRSA,RECUP ENVASE 2,5,9.5,IRSA,Liquido 4x1,10,0.01,,,,,,,,,,,,,,,,,,,,4313,4,,,,,,
38,50224248,50224248,4137,MGOutputWorking,Ticket,1,2,120,92,420,92,1846,34.25,5,1857,34.25,5,5314,35,5,1514,28,5,5405,49,5406,49,1534,32,1544,64,5,,IRSA,CUPON,2,,,,,,,,,,,,,,5,,,,,2,,,3,9006 - Plastico 24 Cavidades,5,,,,,,,,,,,,
38_2,50224248,50224248,4137,MGOutputWorking,Ticket,1,2,,,,,,,,,,,,,,,,,,,,,,,,,,,,,,,,,,,,,,,,,,,,,,,,,,,,,,,,,,,,,,,,,
